initial_file_size   : 0
nr_clients_synced   : 0
nr_clients_fresh    : 1
append_chunk_size   : 100
nr_appends          : 1000
repeat              : 5
chunk_sync_time_avg : 0.00002
chunk_sync_time_max : 0.00280
full_sync_time_avg  : 0.29074
full_sync_time_max  : 0.29074

initial_file_size   : 0
nr_clients_synced   : 0
nr_clients_fresh    : 100
append_chunk_size   : 100
nr_appends          : 1000
repeat              : 5
chunk_sync_time_avg : 0.00043
chunk_sync_time_max : 0.08707
full_sync_time_avg  : 11.14224
full_sync_time_max  : 11.14224

initial_file_size   : 104857600
nr_clients_synced   : 0
nr_clients_fresh    : 1
append_chunk_size   : 0
nr_appends          : 0
repeat              : 1
chunk_sync_time_avg : -
chunk_sync_time_max : -
full_sync_time_avg  : 4.75086
full_sync_time_max  : 4.75086

initial_file_size   : 10485760
nr_clients_synced   : 10
nr_clients_fresh    : 5
append_chunk_size   : 100
nr_appends          : 10000
repeat              : 1
chunk_sync_time_avg : 0.00590
chunk_sync_time_max : 2.82917
full_sync_time_avg  : 62.12573
full_sync_time_max  : 62.12573

